Chapter 11: Univariate Regression
…
##  Length:3129        Length:3129        Length:3129        Min.   : 2.60  
##  Class :character   Class :character   Class :character   1st Qu.:10.80  
##  Mode  :character   Mode  :character   Mode  :character   Median :14.10  
##                                                           Mean   :15.17  
##                                                           3rd Qu.:18.30  
##                                                           Max.   :54.00  
##   less_than_hs         hs      
##  Min.   : 1.20   Min.   : 5.5  
##  1st Qu.: 8.80   1st Qu.:29.8  
##  Median :12.10   Median :34.6  
##  Mean   :13.42   Mean   :34.3  
##  3rd Qu.:17.20   3rd Qu.:39.3  
##  Max.   :66.30   Max.   :55.6

## # A tibble: 3,129 x 3
##    name            poverty    hs
##    <chr>             <dbl> <dbl>
##  1 Autauga County     13.8  32.6
##  2 Baldwin County      9.8  27.6
##  3 Barbour County     30.9  35.7
##  4 Bibb County        21.8  47.3
##  5 Blount County      13.2  34  
##  6 Bullock County     42.5  39.7
##  7 Butler County      24.5  43.9
##  8 Calhoun County     19.5  32.4
##  9 Chambers County    18.7  38.4
## 10 Cherokee County    16.3  38.3
## #  with 3,119 more rows
…
Prompt Lets start by exploring our numerical outcome variable poverty and our numerical explanatory variable less_than_hs. What is the average poverty rate in the US? How does this compare with that of your county (if not from US look up Middlesex County - the county that Cambridge, MA is in)? Furthermore, what is the average percentage of adults without and with a high school diploma? Which states county has the highest percentage of adults without a high school diploma?

## # A tibble: 1 x 1
##   avgPovery
##       <dbl>
## 1      15.2

## [1] 15.3

## # A tibble: 1 x 2
##   without_hs with_hs
##        <dbl>   <dbl>
## 1       13.4    34.3

## # A tibble: 3,129 x 3
##    state name            less_than_hs
##    <chr> <chr>                  <dbl>
##  1 TX    Kenedy County           66.3
##  2 TX    Starr County            48.5
##  3 TX    Presidio County         47.6
##  4 TX    Hudspeth County         46.1
##  5 OH    Holmes County           42.4
##  6 TX    Maverick County         40.3
##  7 TX    Zapata County           40  
##  8 ID    Clark County            39.2
##  9 TX    Gaines County           38.8
## 10 TX    Garza County            38.6
## #  with 3,119 more rows
…
